%YAML 1.1
%TAG !u! tag:unity3d.com,2011:
--- !u!74 &7400000
AnimationClip:
  m_ObjectHideFlags: 0
  m_CorrespondingSourceObject: {fileID: 0}
  m_PrefabInstance: {fileID: 0}
  m_PrefabAsset: {fileID: 0}
  m_Name: SilverCoin
  serializedVersion: 6
  m_Legacy: 0
  m_Compressed: 0
  m_UseHighQualityCurve: 1
  m_RotationCurves: []
  m_CompressedRotationCurves: []
  m_EulerCurves: []
  m_PositionCurves: []
  m_ScaleCurves: []
  m_FloatCurves: []
  m_PPtrCurves:
  - curve:
    - time: 0
      value: {fileID: 21300000, guid: a104643357c94e845b4693e6f83a290a, type: 3}
    - time: 0.083333336
      value: {fileID: 21300000, guid: d04c1c9bfb10b96459bbc754aeff74aa, type: 3}
    - time: 0.16666667
      value: {fileID: 21300000, guid: 02660032610566947a5590de7a644317, type: 3}
    - time: 0.25
      value: {fileID: 21300000, guid: 75708bc69b1cf8d4d9155208cbe9faad, type: 3}
    - time: 0.33333334
      value: {fileID: 21300000, guid: 9652696742b8dae4d9e75e29744876f5, type: 3}
    - time: 0.41666666
      value: {fileID: 21300000, guid: 5147d845f6c9130459020291ba4c9f1d, type: 3}
    - time: 0.5
      value: {fileID: 21300000, guid: 822adef075adc944c870f4661f23caa4, type: 3}
    - time: 0.5833333
      value: {fileID: 21300000, guid: 5198b4349912b494a817e61c76ce2df2, type: 3}
    - time: 0.6666667
      value: {fileID: 21300000, guid: d5c15fe3ca7f6024582ba0a68797a4cc, type: 3}
    - time: 0.75
      value: {fileID: 21300000, guid: e7f547883fb1e044480b9b0bd4673f60, type: 3}
    - time: 0.8333333
      value: {fileID: 21300000, guid: 9f2fbf0c50c3a2b4883750f966b52138, type: 3}
    - time: 0.9166667
      value: {fileID: 21300000, guid: 952e2c1567759b9439aedff3ad26ac51, type: 3}
    - time: 1
      value: {fileID: 21300000, guid: 4b005864ac402aa49a580dcb2a3cc582, type: 3}
    - time: 1.0833334
      value: {fileID: 21300000, guid: b4b2f9edd966c384cb8becfb4af42178, type: 3}
    - time: 1.1666666
      value: {fileID: 21300000, guid: f056e882b9b22744aa67083eecd584ec, type: 3}
    - time: 1.25
      value: {fileID: 21300000, guid: 4414617b6ebbf4c4e8dbd3e700af771b, type: 3}
    - time: 1.3333334
      value: {fileID: 21300000, guid: d218b91008f03654497f329ca9761c91, type: 3}
    - time: 1.4166666
      value: {fileID: 21300000, guid: 4f87f518aec267547ac76d4a28bf363d, type: 3}
    - time: 1.5
      value: {fileID: 21300000, guid: ee0c6dc8d80c7a64aa75cd61c0fad7f9, type: 3}
    - time: 1.5833334
      value: {fileID: 21300000, guid: 2a8de2339f5a98246aa1eb018fb0a7bb, type: 3}
    - time: 1.6666666
      value: {fileID: 21300000, guid: ea862e56a3df04444a47a90665c0cbfe, type: 3}
    - time: 1.75
      value: {fileID: 21300000, guid: 19b0b44988cb8474ba14d809d17a7132, type: 3}
    - time: 1.8333334
      value: {fileID: 21300000, guid: 0674d8c45633426438e05680719ef114, type: 3}
    - time: 1.9166666
      value: {fileID: 21300000, guid: 3488dbaa82372e84ba23ec352a924112, type: 3}
    - time: 2
      value: {fileID: 21300000, guid: 91d5944c58499a044a3ba15dd1883ee0, type: 3}
    - time: 2.0833333
      value: {fileID: 21300000, guid: 13c34e01ac8228346b9f0376c574780c, type: 3}
    - time: 2.1666667
      value: {fileID: 21300000, guid: 570dfa98fa1daf14685c274dc68637cc, type: 3}
    - time: 2.25
      value: {fileID: 21300000, guid: c177b57d6fb6d674bbb05e8838b6bb92, type: 3}
    - time: 2.3333333
      value: {fileID: 21300000, guid: 4621dc5db45a3994bb4d43f46d5f4d48, type: 3}
    - time: 2.4166667
      value: {fileID: 21300000, guid: 058099e94b004304583b547c544bf664, type: 3}
    attribute: m_Sprite
    path: 
    classID: 212
    script: {fileID: 0}
  m_SampleRate: 12
  m_WrapMode: 0
  m_Bounds:
    m_Center: {x: 0, y: 0, z: 0}
    m_Extent: {x: 0, y: 0, z: 0}
  m_ClipBindingConstant:
    genericBindings:
    - serializedVersion: 2
      path: 0
      attribute: 0
      script: {fileID: 0}
      typeID: 212
      customType: 23
      isPPtrCurve: 1
    pptrCurveMapping:
    - {fileID: 21300000, guid: a104643357c94e845b4693e6f83a290a, type: 3}
    - {fileID: 21300000, guid: d04c1c9bfb10b96459bbc754aeff74aa, type: 3}
    - {fileID: 21300000, guid: 02660032610566947a5590de7a644317, type: 3}
    - {fileID: 21300000, guid: 75708bc69b1cf8d4d9155208cbe9faad, type: 3}
    - {fileID: 21300000, guid: 9652696742b8dae4d9e75e29744876f5, type: 3}
    - {fileID: 21300000, guid: 5147d845f6c9130459020291ba4c9f1d, type: 3}
    - {fileID: 21300000, guid: 822adef075adc944c870f4661f23caa4, type: 3}
    - {fileID: 21300000, guid: 5198b4349912b494a817e61c76ce2df2, type: 3}
    - {fileID: 21300000, guid: d5c15fe3ca7f6024582ba0a68797a4cc, type: 3}
    - {fileID: 21300000, guid: e7f547883fb1e044480b9b0bd4673f60, type: 3}
    - {fileID: 21300000, guid: 9f2fbf0c50c3a2b4883750f966b52138, type: 3}
    - {fileID: 21300000, guid: 952e2c1567759b9439aedff3ad26ac51, type: 3}
    - {fileID: 21300000, guid: 4b005864ac402aa49a580dcb2a3cc582, type: 3}
    - {fileID: 21300000, guid: b4b2f9edd966c384cb8becfb4af42178, type: 3}
    - {fileID: 21300000, guid: f056e882b9b22744aa67083eecd584ec, type: 3}
    - {fileID: 21300000, guid: 4414617b6ebbf4c4e8dbd3e700af771b, type: 3}
    - {fileID: 21300000, guid: d218b91008f03654497f329ca9761c91, type: 3}
    - {fileID: 21300000, guid: 4f87f518aec267547ac76d4a28bf363d, type: 3}
    - {fileID: 21300000, guid: ee0c6dc8d80c7a64aa75cd61c0fad7f9, type: 3}
    - {fileID: 21300000, guid: 2a8de2339f5a98246aa1eb018fb0a7bb, type: 3}
    - {fileID: 21300000, guid: ea862e56a3df04444a47a90665c0cbfe, type: 3}
    - {fileID: 21300000, guid: 19b0b44988cb8474ba14d809d17a7132, type: 3}
    - {fileID: 21300000, guid: 0674d8c45633426438e05680719ef114, type: 3}
    - {fileID: 21300000, guid: 3488dbaa82372e84ba23ec352a924112, type: 3}
    - {fileID: 21300000, guid: 91d5944c58499a044a3ba15dd1883ee0, type: 3}
    - {fileID: 21300000, guid: 13c34e01ac8228346b9f0376c574780c, type: 3}
    - {fileID: 21300000, guid: 570dfa98fa1daf14685c274dc68637cc, type: 3}
    - {fileID: 21300000, guid: c177b57d6fb6d674bbb05e8838b6bb92, type: 3}
    - {fileID: 21300000, guid: 4621dc5db45a3994bb4d43f46d5f4d48, type: 3}
    - {fileID: 21300000, guid: 058099e94b004304583b547c544bf664, type: 3}
  m_AnimationClipSettings:
    serializedVersion: 2
    m_AdditiveReferencePoseClip: {fileID: 0}
    m_AdditiveReferencePoseTime: 0
    m_StartTime: 0
    m_StopTime: 2.5
    m_OrientationOffsetY: 0
    m_Level: 0
    m_CycleOffset: 0
    m_HasAdditiveReferencePose: 0
    m_LoopTime: 1
    m_LoopBlend: 0
    m_LoopBlendOrientation: 0
    m_LoopBlendPositionY: 0
    m_LoopBlendPositionXZ: 0
    m_KeepOriginalOrientation: 0
    m_KeepOriginalPositionY: 1
    m_KeepOriginalPositionXZ: 0
    m_HeightFromFeet: 0
    m_Mirror: 0
  m_EditorCurves: []
  m_EulerEditorCurves: []
  m_HasGenericRootTransform: 0
  m_HasMotionFloatCurves: 0
  m_Events: []
